<?xml version="1.0"?>
<svg width="21" height="21" xmlns="http://www.w3.org/2000/svg" xmlns:svg="http://www.w3.org/2000/svg">
 <!-- Created with SVG-edit - http://svg-edit.googlecode.com/ -->
 <g>
  <title>Layer 1</title>
  <circle fill="none" stroke-width="2" stroke-dasharray="null" stroke-linejoin="null" stroke-linecap="null" cx="7.897066" cy="8.297514" r="5.701298" id="svg_7" stroke="#265a88"/>
  <path fill="none" stroke-width="2" stroke-dasharray="null" stroke-linejoin="null" stroke-linecap="null" d="m4.74507,18.9919l6.44298,-11.01242l6.44298,11.01242l-12.88597,0l0.00001,0z" id="svg_8" stroke="#265a88"/>
 </g>
</svg>