<?xml version="1.0"?>
<svg width="21" height="21" xmlns="http://www.w3.org/2000/svg" xmlns:svg="http://www.w3.org/2000/svg">
 <!-- Created with SVG-edit - http://svg-edit.googlecode.com/ -->

 <g>
  <title>Layer 1</title>
  <circle stroke="#265a88" id="svg_7" r="5.701298" cy="8.297514" cx="7.897066" stroke-linecap="null" stroke-linejoin="null" stroke-dasharray="null" stroke-width="null" fill="none"/>
  <path stroke="#265a88" id="svg_8" d="m4.745065,18.9919l6.442981,-11.012422l6.442981,11.012422l-12.885963,0z" stroke-linecap="null" stroke-linejoin="null" stroke-dasharray="null" stroke-width="null" fill="none"/>
 </g>
</svg>